+7 910 00NX1X2X3X4	где N=0,1,2,3,4,5,8,9					Москва
+7 910 01NX2X3X4X5	где N=3,5,9						Москва
+7 910 010X1X2X3X4								Тверь
+7 910 011X1X2X3X4								Смоленск
+7 910 012X1X2X3X4								Рязань
+7 910 014X1X2X3X4								Калуга
+7 910 016X1X2X3X4								Кострома
+7 910 017X1X2X3X4								Ярославль
+7 910 018X1X2X3X4								Иваново
+7 910 020X1X2X3X4								Орел
+7 910 021X1X2X3X4								Брянск
+7 910 022X1X2X3X4								Курск
+7 910 023X1X2X3X4								Белгород
+7 910 024X1X2X3X4								Воронеж
+7 910 02NX1X2X3X4	где N=5,6,7,8,9					Липецк
+7 910 030X1X2X3X4								Белгород
+7 910 03NX1X2X3X4	где N=1,2						Орел
+7 910 03NX1X2X3X4	где N=3,4,5						Брянск
+7 910 03NX1X2X3X4	где N=6,7,8						Владимир
+7 910 039X1X2X3X4								Воронеж
+7 910 04NX1X2X3X4	где N=0,1						Воронеж
+7 910 04NX1X2X3X4	где N=2,3,4						Иваново
+7 910 04NX1X2X3X4	где N=5,6,7						Калуга
+7 910 04NX1X2X3X4	где N=8,9						Москва
+7 910 05NX1X2X3X4	где N=0						Москва
+7 910 05NX1X2X3X4	где N=1,2,3						Курск
+7 910 05NX1X2X3X4	где N=4,5,6						Липецк
+7 910 06NX1X2X3X4	где N=0,1,2						Рязань
+7 910 06NX1X2X3X4	где N=3,4,5						Смоленск
+7 910 06NX1X2X3X4	где N=6,7,8						Тамбов
+7 910 06NX1X2X3X4	где N=9						Тверь
+7 910 07NX1X2X3X4	где N=0,1						Тверь
+7 910 07NX1X2X3X4	где N=2,3,4						Орел
+7 910 07NX1X2X3X4	где N=5,6,7						Тула
+7 910 07NX1X2X3X4	где N=8,9						Ярославль
+7 910 08NX1X2X3X4	где N=0						Ярославль
+7 910 08NX1X2X3X4	где N=1,2,3,4,5,6,7,8,9				Москва
+7 910 09X1X2X3X4Х5								Владимир
+7 910 11X1X2X3X4X5								Смоленск
+7 910 1NX1X2X3X4X5	где N=5,6						Тула
+7 910 1NX1X2X3X4X5	где N=7,8						Владимир
+7 910 19X1X2X3X4X5								Кострома
+7 910 2NX1X2X3X4X5	где N=0,6						Орел
+7 910 2NX1X2X3X4X5	где N=1,7						Курск
+7 910 22X1X2X3X4X5								Белгород
+7 910 2NX1X2X3X4X5	где N=3,9						Брянск
+7 910 2NX1X2X3X4X5	где N=4,8						Воронеж
+7 910 25X1X2X3X4X5								Липецк
+7 910 30X1X2X3X4X5								Орел
+7 910 31X1X2X3X4X5								Курск
+7 910 3NX1X2X3X4X5	где N=2,6						Белгород
+7 910 33X1X2X3X4X5								Брянск
+7 910 34X1X2X3X4X5								Воронеж
+7 910 35X1X2X3X4X5								Липецк
+7 910 37X1X2X3X4X5								Кострома
+7 910 4X1X2X3X4X5Х6								Москва
+7 910 5NX1X2X3X4X5	где N=0,6,7						Рязань
+7 910 5NX1X2X3X4X5	где N=1,2,4,9						Калуга
+7 910 53X1X2X3X4X5								Тверь
+7 910 5NX1X2X3X4X5	где N=5,8						Тула
+7 910 60X1X2X3X4X5								Калуга
+7 910 6NX1X2X3X4X5	где N=1,2,3						Рязань
+7 910 64NX1X2X3X4	где N=1,2,3,4,5					Рязань
+7 910 64NX1X2X3X4	где N=0,6,7,8,9					Тверь
+7 910 65X1X2X3X4X5								Тамбов
+7 910 66NX1X2X3X4	где N=0,1						Кострома
+7 910 66NX1X2X3X4	где N=2,3,4,5,6					Ярославль
+7 910 66NX1X2X3X4	где N=7,8,9						Иваново
+7 910 67X1X2X3X4X5								Владимир
+7 910 6NX1X2X3X4X5	где N=8,9						Иваново
+7 910 70NX1X2X3X4	где N=0,1,2,3,4					Тула
+7 910 70NX1X2X3X4	где N=5,6,7,8,9					Калуга
+7 910 7NX1X2X3X4X5	где N=1,2,6,8						Смоленск
+7 910 73NX1X2X3X4	где N=0,1						Курск
+7 910 73NX1X2X3X4	где N=2,8						Воронеж
+7 910 73NX1X2X3X4	где N=3,4,5						Брянск
+7 910 73NX1X2X3X4	где N=6,7						Белгород
+7 910 73NX1X2X3X4	где N=9						Липецк
+7 910 74NX1X2X3X4	где N=0						Курск
+7 910 74NX1X2X3X4	где N=1,5						Белгород
+7 910 74NX1X2X3X4	где N=2						Липецк
+7 910 74NX1X2X3X4	где N=3						Брянск
+7 910 744NX1X2X3	где N=0,8						Воронеж
+7 910 744NX1X2X3	где N=1,2,3,4,5,6,7,9					Орел
+7 910 746NX1X2X3	где N=1,2,3,4,5,6,7,9					Воронеж
+7 910 746NX1X2X3	где N=0,8						Орел
+7 910 74NX1X2X3X4	где N=7,8						Орел 
+7 910 74NX1X2X3X4	где N=9						Воронеж
+7 910 80X1X2X3X4X5								Кострома
+7 910 8NX1X2X3X4X5	где N=1,2						Ярославль
+7 910 8NX1X2X3X4X5	где N=3,4						Тверь
+7 910 85X1X2X3X4X5								Тамбов
+7 910 86X1X2X3X4X5								Калуга
+7 910 90X1X2X3X4X5								Рязань 
+7 910 91X1X2X3X4X5								Калуга 
+7 910 9NX1X2X3X4X5	где N=2,5						Кострома
+7 910 93X1X2X3X4X5								Тверь
+7 910 94X1X2X3X4X5								Тула
+7 910 9NX1X2X3X4X5	где N=6,7						Ярославль
+7 910 9NX1X2X3X4X5	где N=8,9						Иваново
+7 915 NX1X2X3X4X5X6  	где N=0,1,2,3,4					Москва
+7 915 5NX1X2X3X4X5		где N=0						Орел
+7 915 5NX1X2X3X4X5		где N=1						Курск
+7 915 5NX1X2X3X4X5		где N=2,6,7						Белгород
+7 915 5NX1X2X3X4X5		где N=3						Брянск
+7 915 5NX1X2X3X4X5		где N=4,8						Воронеж
+7 915 5NX1X2X3X4X5		где N=5						Липецк
+7 915 5NX1X2X3X4X5		где N=9						Рязань
+7 915 6NX1X2X3X4X5		где N=0,1,2						Рязань
+7 915 6NX1X2X3X4X5		где N=3,4,5						Смоленск
+7 915 6NX1X2X3X4X5		где N=6,7						Тамбов
+7 915 6NX1X2X3X4X5		где N=8,9						Тула
+7 915 7NX1X2X3X4X5		где N=0,1,2,3,4					Тверь
+7 915 7NX1X2X3X4X5		где N=5,6,7,9						Владимир
+7 915 7NX1X2X3X4X5		где N=8						Тула
+7 915 7NX1X2X3X4X5	где N=9						Владимир
+7 915 8NX1X2X3X4X5	где N=0						Брянск 
+7 915 8NX1X2X3X4X5	где N=1,2,3,4						Иваново
+7 915 8NX1X2X3X4X5	где N=5						Липецк 
+7 915 8NX1X2X3X4X5	где N=6,7,8						Тамбов
+7 915 8NX1X2X3X4X5	где N=9						Калуга
+7 915 9NX1X2X3X4X5	где N=0,1,2						Кострома
+7 915 9NX1X2X3X4X5	где N=6,7,8,9						Ярославль
+7 916 X1X2X3X4X5X6X7								Москва
+7 917 5X1X2X3X4X5X6								Москва
+7 919 0NX1X2X3X4X5	где N=0,1,2						Владимир
+7 919 03X1X2X3X4X5								Калуга
+7 919 04X1X2X3X4X5								Смоленск
+7 919 0NX1X2X3X4X5	где N=5,6						Тверь
+7 919 0NX1X2X3X4X5	где N=7,8						Тула
+7 919 09X1X2X3X4X5								Орел
+7 919 10X1X2X3X4X5								Москва
+7 919 13NX1X2X3X4	где N=0,1,2,3,4,5,6					Курск
+7 919 139X1X2X3X4								Москва
+7 919 16X1X2X3X4X5								Липецк
+7 919 17X1X2X3X4X5								Курск
+7 919 18X1X2X3X4X5								Воронеж
+7 919 19X1X2X3X4X5								Брянск 
+7 919 2NX1X2X3X4X5	где N=0,6						Орел
+7 919 2NX1X2X3X4X5	где N=1,7						Курск
+7 919 2NX1X2X3X4X5	где N=2,8						Белгород
+7 919 2NX1X2X3X4X5	где N=3,4						Воронеж
+7 919 2NX1X2X3X4X5	где N=5						Липецк
+7 919 2NX1X2X3X4X5	где N=9						Брянск
+7 919 41NX1X2X3X4	где N=0,1						Москва
+7 919 43X1X2X3X4X5								Белгород
+7 919 7NX1X2X3X4X5	где N=2,6,7						Москва
+7 919 78NX1X2X3X4	где N=4,6						Москва
+7 919 9NX1X2X3X4X5	где N=6,9						Москва
+7 919 970X1X2X3X4								Москва
+7 980 24X1X2X3X4X5								Воронеж 
+7 980 25NX1X2X3X4        где N=0,1,2,3						Липецк
+7 980 26X1X2X3X4X5								Липецк 
+7 980 29X1X2X3X4X5								Брянск 
+7 980 3NX1X2X3X4X5        где N=0,1,3						Брянск
+7 980 3NX1X2X3X4X5	где N=2,7,8						Белгород
+7 980 34X1X2X3X4X5								Воронеж
+7 980 35X1X2X3X4X5								Липецк
+7 980 36X1X2X3X4X5								Орёл
+7 980 39NX1X2X3X4	где N=0,1,2,3,4					Белгород
+7 980 50X1X2X3X4X5								Рязань
+7 980 51X1X2X3X4X5								Калуга
+7 980 52X1X2X3X4X5								Белгород
+7 980 5NX1X2X3X4X5	где N=3,4,5						Воронеж
+7 980 56X1X2X3X4X5								Рязань 
+7 980 57NX1X2X3X4	где N=0,1,2,3,4					Кострома
+7 980 57NX1X2X3X4	где N=5,6,7,8,9					Смоленск
+7 980 58NX1X2X3X4	где N=0,1,2,3,4					Владимир
+7 980 58NX1X2X3X4	где N=5,6,7,8,9					Тула
+7 980 6NX1X2X3X4X5	где N=2,3,4						Тверь
+7 980 65X1X2X3X4X5								Ярославль
+7 980 66NX1X2X3X4	где N=0,1,2,3,4					Ярославль
+7 980 66NX1X2X3X4	где N=5,6,7,8,9					Иваново
+7 980 67X1X2X3X4X5								Тамбов
+7 980 68X1X2X3X4X5								Иваново
+7 980 69NX1X2X3X4	где N=0,1,2,3,4,5,6					Иваново
+7 980 7NX1X2X3X4X5	где N=0,4,7						Ярославль
+7 980 71X1X2X3X4X5								Калуга
+7 980 72X1X2X3X4X5								Тула
+7 980 73X1X2X3X4X5								Иваново
+7 980 75X1X2X3X4X5								Владимир
+7 980 76X1X2X3X4X5								Орел
+7 980 78X1X2X3X4X5								Тамбов
+7 980 79X1X2X3X4X5								Курск
+7 985 X1X2X3X4X5X6X7								Москва
+7 911 0NX1X2X3X4X5	где N=0,1,2,3,8,9					Санкт-Петербург
+7 911 04NX1X2X3X4  	где N=0,1,2,3,4					Великий Новгород
+7 911 045X1X2X3X4								Вологда
+7 911 046NX1X2X3  	где N=0,1,2,3,4					Вологда
+7 911 046NX1X2X3  	где N=5,6,7,8,9					Череповец
+7 911 04NX1X2X3X4	где N=7,8,9	                      				Череповец
+7 911 05NX1X2X3X4	где N=0,1,2,3,4                     				Петрозаводск
+7 911 05NX1X2X3X4	где N=5,6,7,8,9                     				Архангельск
+7 911 06NX1X2X3X4	где N=0,1,2,3,4                     				Мурманск
+7 911 06NX1X2X3X4	где N=5,6,7,8,9					Нарьян-Мар
+7 911 07NX1X2X3X4	где N=0,1,2,3,4					Калининград
+7 911 07NX1X2X3X4	где N=5,6,7,8,9					Псков
+7 911 NX1X2X3X4X5X6	где N=1,2,7,9						Санкт-Петербург
+7 911 3NX1X2X3X4X5	где N=0,1,2,3,4					Мурманск
+7 911 3NX1X2X3X4X5	где N=5,6,7,8,9					Псков
+7 911 4NX1X2X3X4X5	где N=0,1,2,3						Петрозаводск
+7 911 4NX1X2X3X4X5	где N=5,6,7,8,9					Калининград
+7 911 4NX1X2X3X4X5	где N=4						Вологда
+7 911 5NX1X2X3X4X5	где N=0,1,2,3						Вологда
+7 911 519NX1X2X3  	где N=1,2,3,4,5,6,7,8,9				Череповец
+7 911 54NX1X2X3X4	где N=6,7						Вологда
+7 911 548NX1X2X3  	где N=0,1,2,3,4,5,6					Вологда
+7 911 548NX1X2X3  	где N=7,8,9						Череповец
+7 911 5NX1X2X3X4X5	где N=5,6,7,8,9					Архангельск
+7 911 6NX1X2X3X4X5	где N=0,1,2,3,4					Великий Новгород
+7 911 65NX1X2X3X4	где N=0,1,2,3,4					Нарьян-Мар
+7 911 65NX1X2X3X4   	где N=5,6,7,8,9				            Архангельск
+7 911 66X1X2X3X4X5								Петрозаводск
+7 911 6NX1X2X3X4X5   	где N=7,8					            Архангельск
+7 911 6NX1X2X3X4X5	где N=9						Псков
+7 911 NX1X2X3X4X5X6	где N=7,9						Санкт-Петербург
+7 911 80X1X2X3X4X5								Мурманск
+7 911 8NX1X2X3X4X5	где N=1,2,3,4						Санкт-Петербург
+7 911 8NX1X2X3X4X5	где N=5,6   						Калининград
+7 911 87X1X2X3X4X5								Архангельск
+7 911 8NX1X2X3X4X5	где N=8,9						Псков 
+7 912 000X1X2X3X4								Сыктывкар
+7 912 074X1X2X3X4                                                                                              Печора
+7 912 094X1X2X3X4                                                                                              Ухта
+7 912 095X1X2X3X4                                                                                              Воркута
+7 912 1NX1X2X3X4X5	где N=0,1						Ухта
+7 912 1NX1X2X3X4X5	где N=2,3						Печора
+7 912 1NX1X2X3X4X5	где N=4,5,6,8,9					Сыктывкар
+7 912 1NX1X2X3X4X5	где N=7						Воркута
+7 912 50X1X2X3X4X5								Воркута
+7 912 54X1X2X3X4X5								Ухта
+7 912 55X1X2X3X4X5								Печора
+7 912 56X1X2X3X4X5								Сыктывкар
+7 912 86X1X2X3X4X5								Сыктывкар
+7 912 94X1X2X3X4X5								Ухта
+7 912 95X1X2X3X4X5								Печора
+7 912 96X1X2X3X4X5								Сыктывкар
+7 981 1X1X2X3X4X5X6								Санкт-Петербург 
+7 981 2NX1X2X3X4X5        где N=0,1,2                                                                Санкт-Петербург
+7 981 3NX1X2X3X4X5	где N=0,1						Мурманск 
+7 981 32NX1X2X3X4	где N=0,1,2,3,4					Мурманск 
+7 981 3NX1X2X3X4X5	где N=4,5						Псков 
+7 981 36NX1X2X3X4	где N=0,1,2,3,4					Псков 
+7 981 39NX1X2X3X4	где N=5,6,7,8,9					Петрозаводск 
+7 981 4NX1X2X3X4X5	где N=0,1						Петрозаводск 
+7 981 4NX1X2X3X4X5	где N=2,3						Вологда
+7 981 44NX1X2X3X4	где N=0,1,2,3,4					Череповец
+7 981 44NX1X2X3X4	где N=5,6,7,8,9					Вологда
+7 981 4NX1X2X3X4X5	где N=5,6,7,8						Калининград
+7 981 50X1X2X3X4X5								Череповец
+7 981 51X1X2X3X4X5								Вологда
+7 981 52NX1X2X3X4	где N=0,1,2,3,4					Вологда
+7 981 5NX1X2X3X4X5	где N=5,6,7						Архангельск
+7 981 6NX1X2X3X4X5	где N=0,1						Великий Новгород 
+7 981 65NX1X2X3X4	где N=0,1,2,3,4					Нарьян-Мар
+7 981 6NX1X2X3X4X5	где N=8,9						Санкт-Петербург
+7 981 7X1X2X3X4X5X6								Санкт-Петербург
+7 981 8NX1X2X3X4X5	где N=0,1,2,3,4,5,7,8,9				Санкт-Петербург
+7 981 86NX1X2X3X4	где N=0,1,2,3,4					Санкт-Петербург
+7 981 9X1X2X3X4X5X6								Санкт-Петербург
+7 982 95NX1X2X3X4	где N=0,1,2,3,4					Ухта
+7 982 95NX1X2X3X4	где N=5,6,7,8,9					Печора
+7 910 00NX1X2X3X4	где N=6,7						Н. Новгород
+7 910 05NX1X2X3X4	где N=7,8,9						Н. Новгород
+7 910 1NX1X2X3X4X5	где N=0,2,3,4						Н. Новгород
+7 910 3NX1X2X3X4X5	где N=8,9						Н. Новгород
+7 910 79X1X2X3X4X5								Н. Новгород
+7 910 8NX1X2X3X4X5	где N=7,8,9						Н. Новгород
+7 912 00NX1X2X3X4	где N=8,9                					Киров
+7 912 01X1X2X3X4X5						                        Ижевск
+7 912 02X1X2X3X4X5						                        Ижевск
+7 912 05NX1X2X3X4	где N=3,4,5           					Ижевск
+7 912 05NX1X2X3X4	где N=6,7,8                                                               Киров
+7 912 06NX1X2X3X4	где N=5,6,7						Оренбург
+7 912 3NX1X2X3X4X5	где N=3,6,7						Киров
+7 912 3NX1X2X3X4X5	где N=4,5						Оренбург
+7 912 4NX1X2X3X4X5	где N=4,5,6						Ижевск
+7 912 7NX1X2X3X4X5 	где N=0,1,2,3,						Киров
+7 912 7NX1X2X3X4X5 	где N=4,5,6						Ижевск
+7 912 82X1X2X3X4X5								Киров
+7 912 84X1X2X3X4X5								Оренбург
+7 912 85X1X2X3X4X5								Ижевск
+7 912 87X1X2X3X4X5								Ижевск
+7 915 9NX1X2X3X4X5	где N=3,4,5						Н. Новгород
+7 917 00NX1X2X3X4	где N=3,4,5,6,7,8,9					Саранск
+7 917 0NX1X2X3X4X5        где N=1,3                                                                  Самара
+7 917 02X1X2X3X4X5                                                                                           Саратов
+7 917 04X1X2X3X4X5                                                                                           Уфа
+7 917 05X1X2X3X4X5                                                                                           Ульяновск
+7 917 06NX1X2X3X4	где N=0,1,2,3                                                            Ульяновск
+7 917 06NX1X2X3X4	где N=4,5,6,7                                                            Чебоксары
+7 917 06NX1X2X3X4	где N=8,9                                                                  Саранск
+7 917 07NX1X2X3X4	где N=0,1						Йошкар-Ола
+7 917 07NX1X2X3X4	где N=2,3,4,5,6                                                         Саранск
+7 917 07NX1X2X3X4	где N=7,8,9                                                               Чебоксары
+7 917 1NX1X2X3X4X5	где N=0,1,4,5,6					Самара
+7 917 1NX1X2X3X4X5	где N=2,3						Тольятти
+7 917 2NX1X2X3X4X5	где N=0,1						Саратов
+7 917 2NX1X2X3X4X5	где N=2,3,4,5,6,7,8,9					Казань
+7 917 3NX1X2X3X4X5	где N=0,1,2						Саратов
+7 917 3NX1X2X3X4X5	где N=4,5,6,7,8					Уфа
+7 917 39X1X2X3X4X5								Казань
+7 917 4X1X2X3X4X5X6								Уфа
+7 917 6NX1X2X3X4X5 	где N=0,1,2,3						Ульяновск
+7 917 6NX1X2X3X4X5 	где N=5,6,7						Чебоксары
+7 917 69X1X2X3X4X5								Саранск
+7 917 7NX1X2X3X4X5	где N=0,1						Йошкар-Ола
+7 917 7NX1X2X3X4X5 	где N=3,4,5,6,7,8,9					Уфа
+7 917 8NX1X2X3X4X5 	где N=0						Уфа
+7 917 8NX1X2X3X4X5 	где N=1						Самара
+7 917 8NX1X2X3X4X5 	где N=2						Тольятти
+7 917 8NX1X2X3X4X5	где N=5,6,7,8,9					Казань
+7 917 9NX1X2X3X4X5	где N=0,1,2,3						Казань
+7 917 9NX1X2X3X4X5	где N=4,5						Самара
+7 917 9NX1X2X3X4X5	где N=6,7						Тольятти
+7 917 9NX1X2X3X4X5	где N=8						Саратов
+7 919 138X1X2X3X4 	                      						Чебоксары
+7 917 97NX1X2X3X4	где N=1-9						Чебоксары
+7 917 9NX1X2X3X4X5	где N=9						Саранск
+7 919 41NX1X2X3X4           где N=2-9                                                                  Йошкар-Ола
+7 919 78NX1X2X3X4           где N=0,1,2,3,5,7,8,9                                                Саранск
+7 919 1NX1X2X3X4X5 	где N=4,5						Уфа
+7 919 5NX1X2X3X4X5 	где N=0,1,2						Киров
+7 919 6NX1X2X3X4X5 	где N=0,1						Уфа
+7 919 6NX1X2X3X4X5 	где N=2,3,4,8,9					Казань
+7 919 6NX1X2X3X4X5 	где N=5,6,7						Чебоксары
+7 919 80X1X2X3X4X5								Самара
+7 919 81X1X2X3X4X5								Тольятти
+7 919 8NX1X2X3X4X5	где N=2,3						Саратов
+7 919 8NX1X2X3X4X5	где N=4,5,6						Оренбург
+7 919 9NX1X2X3X4X5 	где N=0,1						Ижевск
+7 982 11NX1X2X3X4 	где N=5,6,7,8,9					Ижевск
+7 982 38X1X2X3X4X5								Киров
+7 982 39NX1X2X3X4 	где N=0,1,2,3,4					Киров
+7 982 81NX1X2X3X4 	где N=0-9					            Киров
+7 982 8NX1X2X3X4X5 	где N=2,3					            Ижевск
+7 982 79X1X2X3X4X5                                                                                           Удмуртская Респ.
+7 982 99X1X2X3X4X5								Ижевск
+7 983 6777X1X2X3                                                                                                Томская обл.
+7 986 7NX1X2X3X4X5 	где N=4,5,6					            Н. Новгород
+7 987 0NX1X2X3X4             где N=40-54                                                              Респ. Башкортостан
+7 987 06X1X2X3X4X5                                                                                            Респ. Татарстан
+7 987 07X1X2X3X4X5                                                                                            Пензинская обл.
+7 987 08X1X2X3X4X5                                                                                            Нижегородская обл.
+7 987 11NX1X2X3X4	где N=0,1,2,3,4					Н. Новгород
+7 987 12X1X2X3X4X5								Чебоксары
+7 987 1NX1X2X3X4X5	где N=3,4						Уфа
+7 987 15X1X2X3X4X5								Самара
+7 987 16NX1X2X3X4	где N=0,1,2,3,4					Самара
+7 987 16NX1X2X3X4	где N=5,6,7,8,9					Тольятти
+7 987 1NX1X2X3X4X5	где N=7,8						Казань
+7 987 19X1X2X3X4X5								Оренбург
+7 987 20NX1X2X3X4	где N=0,1,2,3,4					Оренбург
+7 987 20NX1X2X3X4	где N=5,6,7,8,9					Казань
+7 987 2NX1X2X3X4X5	где N=1,2,3,6,7,8,9					Казань
+7 987 2NX1X2X3X4X5	где N=4,5						Уфа
+7 987 3NX1X2X3X4X5         где N=0,1,2,3,5,6,7,8					Саратов
+7 987 34X1X2X3X4X5	    						            Оренбург
+7 987 39X1X2X3X4X5								Н. Новгород
+7 987 4NX1X2X3X4X5	где N=0,1,2						Казань
+7 987 4NX1X2X3X4X5	где N=3,4						Самара 
+7 987 45X1X2X3X4X5								Тольятти 
+7 987 46NX1X2X3X4	где N=0,1,2,3,4					Самара 
+7 987 46NX1X2X3X4	где N=5,6,7,8,9					Уфа 
+7 987 4NX1X2X3X4X5	где N=7,8,9						Уфа 
+7 987 5NX1X2X3X4X5	где N=0,1,2						Пенза
+7 987 5NX1X2X3X4X5	где N=3,4,5						Н. Новгород 
+7 987 56NX1X2X3X4	где N=0,1,2,3,4					Саратов 
+7 987 56NX1X2X3X4	где N=5,6,7,8,9					Саранск 
+7 987 57NX1X2X3X4	где N=0,1,2,3,4					Саранск
+7 987 57NX1X2X3X4	где N=5,6,7,8,9					Чебоксары
+7 987 5NX1X2X3X4X5	где N=8,9						Уфа
+7 987 6NX1X2X3X4X5	где N=0,1,2						Уфа
+7 987 63X1X2X3X4X5								Ульяновск
+7 987 6NX1X2X3X4X5	где N=6,7						Чебоксары
+7 987 68NX1X2X3X4	где N=0,1,2,3,4					Саранск 
+7 987 68NX1X2X3X4	где N=5,6,7,8,9					Ульяновск
+7 987 69X1X2X3X4X5								Саранск
+7 987 7NX1X2X3X4X5	где N=0,1,2						Йошкар-Ола
+7 987 73NX1X2X3X4	где N=0,1,2,3,4					Йошкар-Ола
+7 987 73NX1X2X3X4	где N=5,6,7,8,9					Чебоксары
+7 987 7NX1X2X3X4X5	где N=4,5						Н. Новгород
+7 987 76X1X2X3X4X5								Чебоксары
+7 987 7NX1X2X3X4X5	где N=7,8,9						Оренбург
+7 987 8NX1X2X3X4X5	где N=0,2,3						Саратов
+7 987 81NX1X2X3X4	где N=0,1,2,3,4					Саратов
+7 987 81NX1X2X3X4	где N=5,6,7,8,9					Самара
+7 987 8NX1X2X3X4X5	где N=4,5,6,7,8,9					Оренбург
+7 987 9NX1X2X3X4X5	где N=0,1,2,4,5,8					Самара
+7 987 9NX1X2X3X4X5	где N=3,6,7						Тольятти
+7 987 99X1X2X3X4X5								Саранск
+7 989 95X1X2X3X4X5  								Уфа
+7 917 00NX1X2X3X4	где N=0,1,2					           Астрахань
+7 917 0NX1X2X3X4X5	где N=8,9						Астрахань
+7 917 1NX1X2X3X4X5	где N=7,8,9						Астрахань
+7 917 33X1X2X3X4X5								Волгоград
+7 917 64X1X2X3X4X5 								Волгоград
+7 917 68X1X2X3X4X5 								Элиста
+7 917 72X1X2X3X4X5 								Волгоград
+7 917 8NX1X2X3X4X5 	где N=3,4						Волгоград
+7 918 00X1X2X3X4X5								Сочи
+7 918 0NX1X2X3X4X5	где N=1,2,3,4,5,6,7,8,9				Краснодар
+7 918 NX1X2X3X4X5X6	где N=1,2,3,4						Краснодар
+7 918 5X1X2X3X4X5X6								Ростов-на-Дону
+7 918 6X1X2X3X4X5X6								Краснодар
+7 918 70X1X2X3X4X5	                      						Владикавказ
+7 918 71X1X2X3X4X5	            						Черкесск
+7 918 72X1X2X3X4X5	             						Нальчик
+7 918 73X1X2X3X4X5	             						Махачкала
+7 918 7NX1X2X3X4X5	где N=4,5,6,7						Ставрополь
+7 918 7NX1X2X3X4X5	где N=8,9						Мин. Воды
+7 918 80X1X2X3X4X5								Мин. Воды
+7 918 8NX1X2X3X4X5	где N=1						Назрань
+7 918 8NX1X2X3X4X5	где N=2,3						Владикавказ
+7 918 84X1X2X3X4X5								Махачкала
+7 918 85X1X2X3X4X5								Ростов-на-Дону
+7 918 86X1X2X3X4X5								Ставрополь
+7 918 8NX1X2X3X4X5	где N=7,8						Ставрополь
+7 918 89X1X2X3X4X5								Ростов-на-Дону
+7 918 9NX1X2X3X4X5	где N=0,1						Сочи
+7 918 92X1X2X3X4X5								Майкоп
+7 918 9NX1X2X3X4X5	 где N=3,4,5,6,7,8,9					Краснодар
+7 919 42X1X2X3X4X5								Владикавказ
+7 919 54X1X2X3X4X5								Волгоград
+7 919 7NX1X2X3X4X5	где N=3,4						Ставрополь
+7 919 7NX1X2X3X4X5	где N=5						Мин. Воды
+7 919 79X1X2X3X4X5								Волгоград
+7 919 8NX1X2X3X4X5	где N=7,8,9						Ростов-на-Дону
+7 919 98X1X2X3X4X5								Волгоград
+7 987 6NX1X2X3X4X5	где N=4,5						Волгоград
+7 978 NX1X2X3X4X5X6      где N=0,7,8                                                               Краснодар
+7 978 1NX1X2X3X4X5         где N=0,1,2,3,4                                                         Краснодар
+7 988 0NX1X2X3X4X5	где N=0,1,2,3,4,5					Волгоград
+7 988 0NX1X2X3X4X5	где N=6,7						Астрахань
+7 988 08NX1X2X3X4	где N=0,1,2,3,4					Майкоп
+7 988 08NX1X2X3X4	где N=5,6,7,8,9,					Ставрополь
+7 988 09X1X2X3X4X5								Мин. воды
+7 988 1NX1X2X3X4X5	где N=0,1						Ставрополь
+7 988 12X1X2X3X4X5								Назрань
+7 988 13X1X2X3X4X5								Новороссийск
+7 988 1NX1X2X3X4X5	где N=4,5,6,8						Сочи
+7 988 17X1X2X3X4X5  	                         					Астрахань
+7 988 2NX1X2X3X4X5 	где N=0,1,2,6,7,9                  			            Махачкала
+7 988 23X1X2X3X4X5								Сочи
+7 988 24X1X2X3X4X5								Краснодар
+7 988 25X1X2X3X4X5								Ростов-на-Дону
+7 988 28X1X2X3X4X5								Сочи
+7 988 30X1X2X3X4X5 	                     			                                   Махачкала
+7 988 3NX1X2X3X4X5 	где N=1,2,3,4,5,6,7,8              		            Краснодар
+7 988 39X1X2X3X4X5								Волгоград
+7 988 4NX1X2X3X4X5	где N=0,1						Сочи
+7 988 42NX1X2X3X4  	где N=0,1,2,3,4,6,7,8,9				Махачкала
+7 988 425X1X2X3X4								Краснодар
+7 988 43X1X2X3X4X5								Махачкала
+7 988 44X1X2X3X4X5								Махачкала
+7 988 45X1X2X3X4X5								Махачкала
+7 988 46NX1X2X3X4	где N=0,1,2,3,4					Краснодар
+7 988 46NX1X2X3X4  	где N=5,6,7,8,9					Махачкала
+7 988 47NX1X2X3X4	где N=0,1,2,3						Краснодар
+7 988 47NX1X2X3X4	где N=4,5,6,7,8,9					Майкоп
+7 988 48NX1X2X3X4	где N=0,1,2,3						Майкоп
+7 988 48NX1X2X3X4	где N=6,7,8,9						Краснодар
+7 988 49X1X2X3X4X5  								Волгоград
+7 988 50NX1X2X3X4  	где N=0,1,2,3,4,5,6,7,8                              		Сочи
+7 988 509X1X2X3X4  	                                     				Краснодар
+7 988 5NX1X2X3X4X5  	где N=1,3,4,6,7,8					Ростов-на-Дону
+7 988 52X1X2X3X4X5  								Краснодар
+7 988 55NX1X2X3X4  	где N=0,1,2,3,4,5,6					Ростов-на-Дону
+7 988 55NX1X2X3X4  	где N=7,8,9						Краснодар
+7 988 59NX1X2X3X4  	где N=0,1,2,3,5,6,7,8,9				Астрахань
+7 988 594X1X2X3X4  								Краснодар
+7 988 600X1X2X3X4  								Астрахань
+7 988 601X1X2X3X4  								Мин. воды
+7 988 60NX1X2X3X4  	где N=2,3,4						Краснодар
+7 988 60NX1X2X3X4  	где N=5,6,7,8,9					Черкесск
+7 988 61X1X2X3X4X5  								Черкесск
+7 988 62NX1X2X3X4  	где N=0,1,3						Новороссийск
+7 988 62NX1X2X3X4  	где N=4,5,6,7,8					Ставрополь
+7 988 629X1X2X3X4  								Мин. воды
+7 988 622X1X2X3X4  								Краснодар
+7 988 6NX1X2X3X4X5  	где N=3,4						Махачкала
+7 988 65NX1X2X3X4  	где N=0,1,3,4,5					Махачкала
+7 988 652X1X2X3X4  								Краснодар
+7 988 65NX1X2X3X4  	где N=6,7,8,9						Назрань
+7 988 66NX1X2X3X4  	где N=0,1,2,3,4,5					Назрань
+7 988 66NX1X2X3X4  	где N=6,7,8,9						Краснодар
+7 988 67NX1X2X3X4  	где N=0,1,2,3,4					Краснодар
+7 988 67NX1X2X3X4  	где N=5,6,7,8,9					Ставрополь 
+7 988 68X1X2X3X4X5  	                         					Элиста
+7 988 69X1X2X3X4X5  								Махачкала 
+7 988 7NX1X2X3X4X5  	где N=0,3						Ставрополь
+7 988 7NX1X2X3X4X5  	где N=4,5						Мин. воды
+7 988 71X1X2X3X4X5  								Черкесск
+7 988 72X1X2X3X4X5  								Нальчик
+7 988 76NX1X2X3X4 	 где N=0,1,3,4,6,7,8					Мин. воды 
+7 988 76NX1X2X3X4 	 где N=2,5,9						Краснодар
+7 988 770X1X2X3X4  								Краснодар
+7 988 77NX1X2X3X4  	где N=1,2,3,4,5,6,7,8,9				Махачкала
+7 988 7NX1X2X3X4X5  	где N=8,9						Махачкала
+7 988 8NX1X2X3X4X5  	где N=0,1,2						Назрань
+7 988 8NX1X2X3X4X5  	где N=3,7						Владикавказ
+7 988 8NX1X2X3X4X5  	где N=4,5                  					Ставрополь
+7 988 86X1X2X3X4X5  	                         					Мин. воды 
+7 988 88X1X2X3X4X5  	                         					Краснодар
+7 988 89X1X2X3X4X5  	                         					Ростов-на-Дону
+7 988 90X1X2X3X4X5								Грозный
+7 988 91X1X2X3X4X5								Черкесск
+7 988 9NX1X2X3X4X5  	где N=2,3               					Нальчик
+7 988 94X1X2X3X4X5  	                         					Ростов-на-Дону 
+7 988 95NX1X2X3X4  	где N=0,1,2               					Ростов-на-Дону
+7 988 95NX1X2X3X4  	где N=3,4,5,6,7         					Краснодар
+7 988 958X1X2X3X4  								Мин. воды
+7 988 959X1X2X3X4								Волгоград
+7 988 96NX1X2X3X4	где N=0,1,2,3,4,5,7,8,9				Волгоград
+7 988 966X1X2X3X4             							Краснодар
+7 988 9NX1X2X3X4X5	где N=7,8						Волгоград
+7 988 99X1X2X3X4X5								Ростов-на-Дону
+7 989 0NX1X2X3X4X5	где N=0,1						Краснодар 
+7 989 0NX1X2X3X4X5	где N=5,6						Дагестан 
+7 989 13X1X2X3X4X5								Владикавказ
+7 989 14NX1X2X3X4	где N=0,1,2,3,4					Майкоп
+7 989 14NX1X2X3X4           где N=5,6,7,8,9                                                         Майкоп
+7 989 15X1X2X3X4X5								Черкесск
+7 989 16X1X2X3X4X5								Сочи
+7 989 1NX1X2X3X4X5	где N=7,8						Грозный
+7 989 19NX1X2X3X4	где N=0,1,2,3,4					Грозный
+7 989 19NX1X2X3X4	где N=5,6,7,8,9					Краснодар 
+7 989 2X1X2X3X4X5X6								Краснодар 
+7 989 3NX1X2X3X4X5	где N=0,1,2,3,4,5					Ставрополь
+7 989 36NX1X2X3X4	где N=0,1,2						Ставрополь
+7 989 36NX1X2X3X4           где N=5,6,7,8,9                                                         Майкоп
+7 989 42X1X2X3X4X5	                  						Ростов-на-Дону
+7 989 43NX1X2X3X4	где N=0,1,2,3,4,5					Ростов-на-Дону 
+7 989 4NX1X2X3X4X5	где N=4,5,6,7,8,9					Махачкала 
+7 989 5NX1X2X3X4X5	где N=0,1,2,3,4,5					Ростов-на-Дону 
+7 989 56X1X2X3X4X5								Астрахань
+7 989 5NX1X2X3X4X5	где N=7,8,9						Волгоград 
+7 989 60X1X2X3X4X5								Волгоград
+7 989 6NX1X2X3X4X5	где N=1,2,3						Ростов-на-Дону
+7 989 64X1X2X3X4X5								Нальчик
+7 989 6NX1X2X3X4X5	где N=5,6,7						Махачкала
+7 989 68NX1X2X3X4	где N=0,1,2,3,4,5,6					Астрахань
+7 989 69NX1X2X3X4	где N=0,1,2,3,4					Черкесск
+7 989 69NX1X2X3X4	где N=5,6,7,8,9					Нальчик
+7 989 7NX1X2X3X4X5	где N=0,1,2						Ростов-на-Дону
+7 989 73X1X2X3X4X5								Элиста
+7 989 74X1X2X3X4X5								Владикавказ
+7 989 75X1X2X3X4X5								Сочи
+7 989 7NX1X2X3X4X5	где N=6,7						Краснодар
+7 989 78X1X2X3X4X5								Черкесск
+7 989 79X1X2X3X4X5								Астрахань
+7 989 8NX1X2X3X4X5	где N=0,1,2,3,4,5					Краснодар
+7 989 8NX1X2X3X4X5	где N=6,7,8,9						Махачкала
+7 989 9NX1X2X3X4X5	где N=0,1,2,3,4					Грозный
+7 989 96X1X2X3X4X5								Астрахань
+7 989 9NX1X2X3X4X5	где N=7,8,9						Ставрополь
+7 912 0NX1X2X3X4X5	где N=3,4						Екатеринбург 
+7 912 05NX1X2X3X4	где N=0,1,2           					Екатеринбург
+7 912 059X1X2X3X4	           					                        Пермь
+7 912 06NX1X2X3X4	где N=0,1,8,9				                        Пермь
+7 912 06NX1X2X3X4	где N=2,3,4				                        Курган
+7 912 070X1X2X3X4	           					                        Пермь
+7 912 07NX1X2X3X4	где N=1,2,3				                        Ноябрьск
+7 912 075NX1X2X3		где N=0				                        Курган
+7 912 075NX1X2X3		где N=1,2,3,4,5			                        Пермь
+7 912 075NX1X2X3		где N=6,7				                        Екатеринбург
+7 912 075NX1X2X3		где N=8,9				                        Тюмень
+7 912 076NX1X2X3		где N=0,1				                        Сургут
+7 912 076NX1X2X3		где N=2,3,4,5,6			                        Челябинск
+7 912 07NX1X2X3X4	где N=7,8,9				                        Тюмень
+7 912 08NX1X2X3X4	где N=0,6,7,8				                        Сургут
+7 912 08NX1X2X3X4	где N=1,2,3,4,5			                        Челябинск
+7 912 089X1X2X3X4                                                                                              Нижневартовск
+7 912 093X1X2X3X4	                    				                        Нижневартовск
+7 912 2X1X2X3X4X5X6								Екатеринбург
+7 912 30X1X2X3X4X5 								Магнитогорск
+7 912 3NX1X2X3X4X5	где N=1,2						Челябинск
+7 912 3NX1X2X3X4X5	где N=8,9						Тюмень
+7 912 40X1X2X3X4X5 								Магнитогорск
+7 912 41X1X2X3X4X5 								Сургут
+7 912 4NX1X2X3X4X5         где N=2,3						Ноябрьск
+7 912 47X1X2X3X4X5 								Челябинск
+7 912 4NX1X2X3X4X5 	где N=8,9						Пермь
+7 912 51X1X2X3X4X5								Сургут
+7 912 5NX1X2X3X4X5	где N=2,7						Курган
+7 912 53X1X2X3X4X5								Нижневартовск
+7 912 5NX1X2X3X4X5	где N=8,9						Пермь
+7 912 6X1X2X3X4X5X6								Екатеринбург	
+7 912 7NX1X2X3X4X5 	где N=7,9						Челябинск
+7 912 78X1X2X3X4X5 								Пермь
+7 912 80X1X2X3X4X5								Магнитогорск
+7 912 81X1X2X3X4X5								Сургут
+7 912 83X1X2X3X4X5								Курган
+7 912 88X1X2X3X4X5								Пермь
+7 912 89X1X2X3X4X5								Челябинск
+7 912 90X1X2X3X4X5								Сургут
+7 912 91X1X2X3X4X5								Надым
+7 912 92X1X2X3X4X5								Тюмень
+7 912 93X1X2X3X4X5								Нижневартовск
+7 912 97X1X2X3X4X5								Курган
+7 912 98X1X2X3X4X5								Пермь
+7 912 99X1X2X3X4X5								Тюмень
+7 919 1NX1X2X3X4X5 	где N=1,2						Челябинск
+7 919 3NX1X2X3X4X5 	где N=0,1,2,3,4,5					Челябинск
+7 919 3NX1X2X3X4X5 	где N=6,7,8,9						Екатеринбург
+7 919 40X1X2X3X4X5 								Магнитогорск
+7 919 4NX1X2X3X4X5 	где N=4,5,6,7,8,9					Пермь
+7 919 5NX1X2X3X4X5 	где N=3						Нижневартовск
+7 919 55X1X2X3X4X5 	             						Салехард
+7 919 5NX1X2X3X4X5 	где N=6,7,8,9						Курган
+7 919 7NX1X2X3X4X5 	где N=0,1						Пермь
+7 919 9NX1X2X3X4X5 	где N=2,3,4,5						Тюмень
+7 982 10X1X2X3X4X5 								Челябинск
+7 982 11NX1X2X3X4	где N=0,1,2,3,4					Челябинск
+7 982 17X1X2X3X4X5 								Ноябрьск
+7 982 13NX1X2X3X4 	где N=5,6,7,8,9					Сургут
+7 982 14X1X2X3X4X5 	                       					            Сургут
+7 982 15X1X2X3X4X5 	                       					            Нижневартовск
+7 982 16X1X2X3X4X5 	                       					            Ноябрьск
+7 982 18X1X2X3X4X5 								Сургут
+7 982 19NX1X2X3X4	где N=0,1,2,3,4					Сургут
+7 982 19NX1X2X3X4	где N=5,6,7,8,9					Нижневартовск
+7 982 2NX1X2X3X4X5 	где N=3,4,5						Пермский край
+7 982 2NX1X2X3X4X5 	где N=6						Я-Н. авт. округ
+7 982 2NX1X2X3X4X5 	где N=7,8,9						Челябинская обл.
+7 982 7NX1X2X3X4X5 	где N=2,3,4,5,6					Свердловская обл.
+7 982 7NX1X2X3X4X5 	где N=7,8         					Тюменская обл.
+7 982 80X1X2X3X4X5 	                              					Курганская обл.
+7 982 3NX1X2X3X4X5 	где N=0,1,2						Магнитогорск
+7 982 3NX1X2X3X4X5 	где N=3,4,5,6,7					Челябинск
+7 982 39NX1X2X3X4	где N=5,6,7,8,9					Курган
+7 982 40X1X2X3X4X5								Ноябрьск
+7 982 41X1X2X3X4X5                                                                                           Сургут
+7 982 42X1X2X3X4X5                                                                                           Курган
+7 982 4NX1X2X3X4X5         где N=3,4,5,6,7,8,9					Пермь
+7 982 5NX1X2X3X4X5 	где N=0,1,5,6,9					Сургут
+7 982 5NX1X2X3X4X5 	где N=2,3,4,7,8					Нижневартовск
+7 982 6X1X2X3X4X5X6 								Екатеринбург
+7 982 7NX1X2X3X4X5 	где N=0,1						Екатеринбург
+7 982 9NX1X2X3X4X5 	где N=0,1,2,3,4,6,7,8					Тюмень
+7 982 13NX1X2X3X4 	где N=0,1,2,3,4					Тюмень
+7 913 0NX1X2X3X4X5	где N=0,1,6						Новосибирск
+7 913 0NX1X2X3X4X5	где N=2,8,9						Барнаул
+7 913 0NX1X2X3X4X5	где N=3,4						Красноярск
+7 913 0NX1X2X3X4X5	где N=5                                                                     Абакан
+7 913 0NX1X2X3X4X5	где N=7						Новокузнецк
+7 913 1NX1X2X3X4X5	где N=0,1						Томск
+7 913 1NX1X2X3X4X5	где N=2						Кемерово
+7 913 1NX1X2X3X4X5	где N=3						Новокузнецк
+7 913 1NX1X2X3X4X5	где N=4,5						Омск
+7 913 1NX1X2X3X4X5	где N=6						Норильск
+7 913 1NX1X2X3X4X5	где N=7,8,9						Красноярск
+7 913 20X1X2X3X4X5								Новосибирск
+7 913 2NX1X2X3X4X5	где N=1,2,3,4,5,6,7					Барнаул
+7 913 2NX1X2X3X4X5	где N=8,9						Кемерово
+7 913 30X1X2X3X4X5								Кемерово
+7 913 3NX1X2X3X4X5	где N=1,2,3						Новокузнецк
+7 913 3NX1X2X3X4X5 	где N=4,5						Кызыл
+7 913 36X1X2X3X4X5 								Барнаул 
+7 913 3NX1X2X3X4X5	где N=7,8,9						Новосибирск
+7 913 4NX1X2X3X4X5	где N=0,3						Кемерово
+7 913 4NX1X2X3X4X5	где N=1,2						Новокузнецк
+7 913 44X1X2X3X4X5								Абакан
+7 913 4NX1X2X3X4X5	где N=5,6,7,8						Новосибирск
+7 913 49X1X2X3X4X5								Норильск
+7 913 50NX1X2X3X4	где N=0,1,2,3,4,5,6,8					Норильск
+7 913 50NX1X2X3X4	где N=7,9						Красноярск
+7 913 5NX1X2X3X4X5	где N=1,5,6,7,8,9					Красноярск
+7 913 52NX1X2X3X4	где N=0,1,2,3,4,7,8,9					Красноярск
+7 913 52NX1X2X3X4	где N=5,6						Норильск
+7 913 53NX1X2X3X4 	где N=0,1						Норильск
+7 913 53NX1X2X3X4 	где N=2,3,4,5,6,7,8,9					Красноярск
+7 913 54X1X2X3X4X5 								Абакан
+7 913 6NX1X2X3X4X5	где N=0,1,2,3,4,5,6,7,8				Омск
+7 913 6NX1X2X3X4X5 	где N=9						Горно-Алтайск
+7 913 7X1X2X3X4X5X6 								Новосибирск
+7 913 8NX1X2X3X4X5	где N=0,1,2,4,5,6,7,8					Томск
+7 913 83X1X2X3X4X5								Красноярск
+7 913 89X1X2X3X4X5 								Новосибирск
+7 913 9NX1X2X3X4X5	где N=0,1,2,3,4,5					Новосибирск
+7 913 9NX1X2X3X4X5	где N=6,7						Омск
+7 913 98NX1X2X3X4	где N=0,1,2,3,4,5,6,7,9				Новосибирск
+7 913 988X1X2X3X4								Омск
+7 913 99X1X2X3X4X5	                   						Горно-Алтайск
+7 983 00NX1X2X3X4	где N=0,1						Новосибирск
+7 983 01NX1X2X3X4	где N=0,1						Томск
+7 983 01NX1X2X3X4	где N=2-7      						Кемерово
+7 983 02X1X2X3X4X5	            			                 		Новосибирск
+7 983 05NX1X2X3X4	где N=8,9                       				Горно-Алтайск
+7 983 05NX1X2X3X4	где N=0,5						Красноярск
+7 983 05NX1X2X3X4	где N=1						Барнаул
+7 983 05NX1X2X3X4	где N=2						Горно-Алтайск
+7 983 05NX1X2X3X4	где N=3						Томск
+7 983 05NX1X2X3X4	где N=6						Кемерово
+7 983 07NX1X2X3X4	где N=0,5,7						Красноярск
+7 983 10X1X2X3X4X5	где N=0,7,8						Барнаул
+7 983 11X1X2X3X4X5								Омск
+7 983 1NX1X2X3X4X5        где N=2,3                                                                  Новосибирск
+7 983 1NX1X2X3X4X5        где N=4,5,6                                                               Красноярск
+7 983 181NX1X2X3             где N=0,1,2						Барнаул
+7 983 19X1X2X3X4X5                                                                                           Абакан
+7 983 2NX1X2X3X4X5	где N=0,8,9						Красноярск
+7 983 2NX1X2X3X4X5	где N=1,2						Кемерово
+7 983 23X1X2X3X4X5								Томск
+7 983 25NX1X2X3X4           где N=0,1,2,3,4					Кемерово
+7 983 25NX1X2X3X4           где N=5,6,7,8,9					Абакан
+7 983 26NX1X2X3X4           где N=0,1,2,3,4					Абакан
+7 983 26NX1X2X3X4           где N=5,6,7,8,9					Красноярск
+7 983 27X1X2X3X4X5         							Абакан
+7 983 3NX1X2X3X4X5	где N=0,1						Новосибирск
+7 983 32NX1X2X3X4           где N=0,1,2,3,4					Новосибирск
+7 983 32NX1X2X3X4           где N=5,6,7,8,9					Горно-Алтайск
+7 983 34X1X2X3X4X5								Томск
+7 983 3NX1X2X3X4X5	где N=5,8,9						Барнаул
+7 983 36NX1X2X3X4           где N=0,1,2,3,4					Красноярск
+7 983 36NX1X2X3X4           где N=5,6,7,8,9					Кызыл
+7 983 37X1X2X3X4X5        								Абакан
+7 983 399X1X2X3X4          						                        Барнаул
+7 983 5NX1X2X3X4X5	где N=0,						Красноярск
+7 983 51NX1X2X3X4	где N=0,1,2,3,4					Новосибирск
+7 983 51NX1X2X3X4           где N=5,6,7,8,9					Кызыл
+7 983 5NX1X2X3X4X5	где N=2,6						Омск
+7 983 5NX1X2X3X4X5	где N=4,5						Барнаул
+7 983 57NX1X2X3X4           где N=0,1,2,3,4,5,6,7					Красноярск
+7 983 57NX1X2X3X4           где N=8,9						Норильск
+7 983 58NX1X2X3X4           где N=0,1,2,3,4					Горно-Алтайск 
+7 983 58NX1X2X3X4           где N=5,6,7,8,9					Абакан 
+7 983 59NX1X2X3X4           где N=0,1,2,3,4					Кызыл
+7 983 59NX1X2X3X4           где N=5,6						Кемерово
+7 983 59NX1X2X3X4           где N=7,8						Томск
+7 983 599X1X2X3X4								Красноярск
+7 983 60X1X2X3X4X5        								Барнаул
+7 983 61X1X2X3X4X5        								Красноярск
+7 983 62X1X2X3X4X5        								Омск
+7 983 660NX1X2X3            где N=0                 					Омск
+7 983 661NX1X2X3            где N=1						Омск
+7 983 69X1X2X3X4X5                      						Иркутск
+7 914 00X1X2X3X4X5                                            					Иркутск
+7 914 01NX1X2X3X4        где N=0,1,2,3,4                                                         Иркутск
+7 914 01NX1X2X3X4        где N=5,6,7,8,9                                                         Биробиджан
+7 914 02X1X2X3X4X5                                                                                           П.-Камчатский
+7 914 03X1X2X3X4X5                                                                                           Магадан
+7 914 04X1X2X3X4X5								Благовещенск
+7 914 05X1X2X3X4X5                                                                                           Улан-Удэ
+7 914 06NX1X2X3X4          где N=0,1,2,3,4    					Благовещенск
+7 914 06NX1X2X3X4          где N=5,6,7,8,9    					Владивосток
+7 914 07X1X2X3X4X5                                                                                           Владивосток
+7 914 08NX1X2X3X4	где N=0,1,2						Анадырь
+7 914 08NX1X2X3X4	где N=3,4,5,6,7,8,9					Южно-Сахалинск
+7 914 09X1X2X3X4X5	                     						Южно-Сахалинск
+7 914 10X1X2X3X4X5                            					            Якутск
+7 914 11NX1X2X3X4           где N=0,1      					            Якутск
+7 914 11NX1X2X3X4           где N=2,3,4,5					            Мирный
+7 914 11NX1X2X3X4           где N=6,7,8,9					            Нерюнгри
+7 914 1NX1X2X3X4X5        где N=2,3,4					            Чита
+7 914 15X1X2X3X4X5								Хабаровск
+7 914 1NX1X2X3X4X5	где N=6,7						Комсомольск-на-Ам.
+7 914 18NX1X2X3X4	где N=0,1,2,3						Хабаровск
+7 914 18NX1X2X3X4	где N=4,5,6,7,8,9					Комсомольск-на-Ам.
+7 914 19X1X2X3X4X5								Хабаровск
+7 914 2NX1X2X3X4X5	где N=0,1						Хабаровск
+7 914 2NX1X2X3X4X5	где N=2,3,7						Якутск
+7 914 2NX1X2X3X4X5 	где N=4						Нерюнгри
+7 914 2NX1X2X3X4X5 	где N=5 						Мирный
+7 914 26NX1X2X3X4 	где N=0,9 						Мирный
+7 914 26NX1X2X3X4 	где N=1,2,3,4,5,6,7,8					Якутск
+7 914 28NX1X2X3X4		где N=0,1,5,6,7,8,9					Якутск
+7 914 28NX1X2X3X4		где N=2,3,4						Нерюнгри
+7 914 29NX1X2X3X4	где N=0,1,2,3,4,6,7,8,9				Якутск
+7 914 29NX1X2X3X4 	где N=5						Мирный
+7 914 3NX1X2X3X4X5 	где N=0					            Якутск
+7 914 3NX1X2X3X4X5 	где N=1,7					            Хабаровск
+7 914 3NX1X2X3X4X5 	где N=2,3,4						Владивосток
+7 914 3NX1X2X3X4X5 	где N=5,6						Чита
+7 914 3NX1X2X3X4X5 	где N=8,9						Благовещенск
+7 914 4NX1X2X3X4X5 	где N=0,1,2					            Хабаровск
+7 914 4NX1X2X3X4X5 	где N=3,4,5,6,7,8,9					Чита
+7 914 5NX1X2X3X4X5 	где N=0,1,2						Чита
+7 914 53NX1X2X3X4	где N=3,4,5,6,7					Анадырь
+7 914 538X1X2X3X4									Благовещенск
+7 914 539NX1X2X3		где N=0,1,2						Благовещенск
+7 914 54X1X2X3X4X5								Хабаровск
+7 914 5NX1X2X3X4X5	где N=5,6,7,8,9					Благовещенск
+7 914 6NX1X2X3X4X5	где N=0						Благовещенск
+7 914 6NX1X2X3X4X5	где N=1						Тында
+7 914 6NX1X2X3X4X5	где N=2						П.-Камчатский
+7 914 6NX1X2X3X4X5	где N=5,6,7,8,9					Владивосток
+7 914 6NX1X2X3X4X5	где N=3						Улан-Удэ
+7 914 6NX1X2X3X4X5	где N=4						Южно-Сахалинск
+7 914 7NX1X2X3X4X5	где N=0,1,2,3,9					Владивосток
+7 914 7NX1X2X3X4X5	где N=4,5,6						Южно-Сахалинск
+7 914 77X1X2X3X4X5								Хабаровск
+7 914 78X1X2X3X4X5								Камчатка
+7 914 80X1X2X3X4X5								Чита 
+7 914 81X1X2X3X4X5								Биробиджан
+7 914 82X1X2X3X4X5								Якутск
+7 914 8NX1X2X3X4X5	где N=3,4						Улан-Удэ
+7 914 8NX1X2X3X4X5 	где N=5,6						Магадан
+7 914 8NX1X2X3X4X5	где N=7,8,9						Иркутск
+7 914 9NX1X2X3X4X5	где N=6,7						Владивосток
+7 914 9NX1X2X3X4X5	где N=0,1,2,3,4,5					Иркутск
+7 914 98X1X2X3X4X5								Улан-Удэ
+7 914 99X1X2X3X4X5								П.-Камчатский
+7 983 24X1X2X3X4X5								Иркутск
+7 983 33X1X2X3X4X5								Улан-Удэ
+7 983 4NX1X2X3X4X5	где N=0,1,4,6						Иркутск
+7 983 4NX1X2X3X4X5	где N=2,3,5						Улан-Удэ
+7 983 53X1X2X3X4X5								Улан-Удэ
+7 983 63X1X2X3X4X5                                                                                            Улан-Удэ 
+7 984 10X1X2X3X4X5								Якутск
+7 984 11NX1X2X3X4 	где N=0,1 						Мирный
+7 984 11NX1X2X3X4 	где N=2,3,4,5,6,7,8,9					Якутск
+7 984 12NX1X2X3X4           где N=0,1,2,3,4                                                         Якутск
+7 984 12NX1X2X3X4	где N=5,6,7,8,9					Биробиджан
+7 984 13X1X2X3X4X5	                        					Южно-Сахалинск
+7 984 14X1X2X3X4X5	                        					Владивосток 
+7 984 16X1X2X3X4X5                                                                                           П.-Камчатский
+7 984 17X1X2X3X4X5                                                                                           Хабаровск
+7 984 18NX1X2X3X4	где N=0,1,2,3,4					Южно-Сахалинск
+7 984 18NX1X2X3X4	где N=8,9						Владивосток
+7 984 19X1X2X3X4X5								Владивосток
+7 984 2NX1X2X3X4             где N=00-14	                                                           Владивосток
+7 984 22X1X2X3X4X5                                                                                            Владивосток
+7 984 27X1X2X3X4X5                                                                                            Иркутск
+7 984 28X1X2X3X4X5                                                                                            Хабаровск
+7 984 29X1X2X3X4X5                                                                                            Хабаровск